Valmax Real State
…
It is a pain to work with column names like these. I would recommend changing the column titles to snake case using the clean_names() function in the janitor package. Additionally, create a difference variable by subtracting the selling price from the asking price.

valmax_Clean <- clean_names(valmax) # change colunm names to snake case

valmax_Clean <- valmax_Clean %>%
 mutate(price_difference = (asking_price - selling_price))
print(valmax_Clean)

## # A tibble: 79 x 5
##    house asking_price selling_price broker price_difference
##    <dbl>        <dbl>         <dbl> <chr>             <dbl>
##  1     1       290000        275000 valmax            15000
##  2     2       315000        314000 valmax             1000
##  3     3       299000        310000 valmax           -11000
##  4     4       615000        610000 valmax             5000
##  5     5       345000        345000 valmax                0
##  6     6       230000        221000 valmax             9000
##  7     7       420000        418000 valmax             2000
##  8     8       399000        382000 valmax            17000
##  9     9       549000        555000 valmax            -6000
## 10    10       299000        292000 valmax             7000
## #  with 69 more rows
…
